Time,Company,Web Registration,Phone
11:00 AM,HT Media,https://zoom.us/webinar/register/WN_HYoniUR5Rq6RkBw-OfcD8Q,N/A
2:00 PM,Shakti Pumps,N/A,N/A
2:30 PM,Tata Communications,https://tatacomamericas.webex.com/mw3300/mywebex/default.do?nomenu=true&siteurl=tatacomamericas&service=6&rnd=0.2285013419878027&main_url=https%3A%2F%2Ftatacomamericas.webex.com%2Fec3300%2Feventcenter%2Fevent%2FeventAction.do%3FtheAction%3Ddetail%26%26%26EMK%3D4832534b000000044f42c3f2d2687ba62a4adb3ef98c2c224f70f9d5023cb612f62b33b2268db8ea%26siteurl%3Dtatacomamericas%26confViewID%3D183301409624567414%26encryptTicket%3DSDJTSwAAAAQPyM6PJUsrPU8hr1JO_y05bKGBIWXCxBulJuoLUyeB5Q2%26,N/A
2:30 PM,Vardhman Steels,https://services.choruscall.in/DiamondPassRegistration/register?confirmationNumber=8287487&linkSecurityString=19caeeeec9,912262801259 / 912271158160
4:00 PM,CEAT,N/A,912271158160 / 912271158160 / 912271158160
4:00 PM,Newgen Software Technologies,https://services.choruscall.in/DiamondPassRegistration/register?confirmationNumber=6061953&linkSecurityString=12c0ddc067,"912262801144 / 912271158045 / 917045671221"
4:00 PM,Hindustan Aeron,https://services.choruscall.in/DiamondPassRegistration/register?confirmationNumber=2616828&linkSecurityString=825133f20,N/A
4:00 PM,Hind Zinc,https://services.choruscall.in/DiamondPassRegistration/register?confirmationNumber=3851758&linkSecurityString=bef840636,912262801340 / 912271158241 / 917045671221
4:30 PM,Federal Bank,https://services.choruscall.in/DiamondPassRegistration/register?confirmationNumber=1624869&linkSecurityString=50e33fc5f,18001201221 / 18002661221
5:30 PM,Larsen & Toubro Infotech,https://links.ccwebcast.com/?EventId=LTI20012021,912262801104 / 912271158005 / 917045671221
5:30 PM,Bajaj Finance,https://services.choruscall.in/DiamondPassRegistration/register?confirmationNumber=4088078&linkSecurityString=ca0fe2998,912262801366 / 9171158267
6:00 PM,GMM Pfaudler,https://services.choruscall.in/DiamondPassRegistration/register?confirmationNumber=2837055&linkSecurityString=8c683f75b,912262801107 / 912271158008 / 917045671221
6:30 PM,HDFC AMC,https://services.choruscall.in/DiamondPassRegistration/register?confirmationNumber=7371714&linkSecurityString=16f6235004,912262801145 / 912271158046 / 917045671221
7:00 PM,Tejas Network,https://services.choruscall.in/DiamondPassRegistration/register?confirmationNumber=6679349&linkSecurityString=148f263cf4,912262801145 / 912271158046 / 917045671221
8:30 PM,L&T Technologies,https://services.choruscall.in/DiamondPassRegistration/register?confirmationNumber=2600553&linkSecurityString=7f766ba6d,912262801176 / 917045671221 